<?xml version="1.0"?>
<VTKFile type="PUnstructuredGrid" version="0.1">
  <PUnstructuredGrid GhostLevel="0">
    <PPoints>
      <PDataArray type="Float64" NumberOfComponents="3" />
    </PPoints>
    <PCellData>
      <PDataArray type="UInt32" Name="connectivity" />
      <PDataArray type="UInt32" Name="offsets" />
      <PDataArray type="UInt8" Name="types" />
    </PCellData>
    <PPointData Vectors="f_1947964">
      <PDataArray type="Float64" Name="f_1947964" NumberOfComponents="3" />
    </PPointData>
    <Piece Source="mini_u_p0_000001.vtu" />
    <Piece Source="mini_u_p1_000001.vtu" />
    <Piece Source="mini_u_p2_000001.vtu" />
    <Piece Source="mini_u_p3_000001.vtu" />
  </PUnstructuredGrid>
</VTKFile>
