element_size_coarse = 400.;
element_size_island = 40.;
element_size = 40.;

//**********************
// SOUTHERN COASTLINE (Dunnet Head to just round Duncansby Head)
//**********************

Point(894) = {498016.341587, 6499506.58913,0,element_size_coarse};
Point(895) = {498353.560707, 6499828.10564,0,element_size_coarse};
Line(894) = {894, 895};
Point(896) = {498543.859388, 6499831.1475,0,element_size_coarse};
Line(895) = {895, 896};
Point(897) = {498593.858559, 6499874.44206,0,element_size_coarse};
Line(896) = {896, 897};
Point(898) = {498593.890916, 6499964.07423,0,element_size_coarse};
Line(897) = {897, 898};
Point(899) = {498695.512109, 6500059.90634,0,element_size_coarse};
Line(898) = {898, 899};
Point(900) = {498695.605338, 6500338.2672,0,element_size_coarse};
Line(899) = {899, 900};
Point(901) = {498449.006306, 6500573.40564,0,element_size_coarse};
Line(900) = {900, 901};
Point(902) = {498353.875755, 6500573.44469,0,element_size_coarse};
Line(901) = {901, 902};
Point(903) = {498162.072728, 6500749.90008,0,element_size_coarse};
Line(902) = {902, 903};
Point(904) = {497965.377898, 6500749.99788,0,element_size_coarse};
Line(903) = {903, 904};
Point(905) = {497870.260617, 6500660.30512,0,element_size_coarse};
Line(904) = {904, 905};
Point(906) = {497768.689688, 6500660.36199,0,element_size_coarse};
Line(905) = {905, 906};
Point(907) = {497673.509507, 6500573.79172,0,element_size_coarse};
Line(906) = {906, 907};
Point(908) = {497578.378962, 6500573.84971,0,element_size_coarse};
Line(907) = {907, 908};
Point(909) = {497191.679638, 6500942.21422,0,element_size_coarse};
Line(908) = {908, 909};
Point(910) = {497001.436545, 6500942.35608,0,element_size_coarse};
Line(909) = {909, 910};
Point(911) = {496904.816881, 6501029.05772,0,element_size_coarse};
Line(910) = {910, 911};
Point(912) = {496759.618557, 6500896.11915,0,element_size_coarse};
Line(911) = {911, 912};
Point(913) = {496759.538778, 6500800.25159,0,element_size_coarse};
Line(912) = {912, 913};
Point(914) = {496511.045294, 6500571.65339,0,element_size_coarse};
Line(913) = {913, 914};
Point(915) = {495546.912066, 6500572.63653,0,element_size_coarse};
Line(914) = {914, 915};
Point(916) = {495451.893444, 6500668.61398,0,element_size_coarse};
Line(915) = {915, 916};
Point(917) = {495158.441095, 6500668.96777,0,element_size_coarse};
Line(916) = {916, 917};
Point(918) = {495063.422673, 6500755.71313,0,element_size_coarse};
Line(917) = {917, 918};
Point(919) = {494676.533893, 6500756.22282,0,element_size_coarse};
Line(918) = {918, 919};
Point(920) = {494579.907447, 6500845.98851,0,element_size_coarse};
Line(919) = {919, 920};
Point(921) = {494099.480169, 6500852.92218,0,element_size_coarse};
Line(920) = {920, 921};
Point(922) = {493996.1994, 6500757.21233,0,element_size_coarse};
Line(921) = {921, 922};
Point(923) = {493805.947204, 6500757.51031,0,element_size_coarse};
Line(922) = {922, 923};
Point(924) = {493515.282975, 6500476.50429,0,element_size_coarse};
Line(923) = {923, 924};
Point(925) = {493323.391839, 6500476.82855,0,element_size_coarse};
Line(924) = {924, 925};
Point(926) = {493228.102831, 6500387.24932,0,element_size_coarse};
Line(925) = {925, 926};
Point(927) = {492936.312487, 6500387.76762,0,element_size_coarse};
Line(926) = {926, 927};
Point(928) = {492834.910775, 6500483.8206,0,element_size_coarse};
Line(927) = {927, 928};
Point(929) = {492549.512398, 6500484.35615,0,element_size_coarse};
Line(928) = {928, 929};
Point(930) = {492352.427537, 6500293.00266,0,element_size_coarse};
Line(929) = {929, 930};
Point(931) = {492257.290073, 6500293.19063,0,element_size_coarse};
Line(930) = {930, 931};
Point(932) = {492161.97223, 6500203.74884,0,element_size_coarse};
Line(931) = {931, 932};
Point(933) = {492066.832582, 6500203.94146,0,element_size_coarse};
Line(932) = {932, 933};
Point(934) = {491869.729105, 6500021.85402,0,element_size_coarse};
Line(933) = {933, 934};
Point(935) = {491679.492304, 6500019.1381,0,element_size_coarse};
Line(934) = {934, 935};
Point(936) = {491577.697282, 6499923.48912,0,element_size_coarse};
Line(935) = {935, 936};
Point(937) = {491095.535066, 6499930.68548,0,element_size_coarse};
Line(936) = {936, 937};
Point(938) = {491000.167229, 6499835.03687,0,element_size_coarse};
Line(937) = {937, 938};
Point(939) = {490708.277337, 6499835.72221,0,element_size_coarse};
Line(938) = {938, 939};
Point(940) = {490516.864479, 6500021.79522,0,element_size_coarse};
Line(939) = {939, 940};
Point(941) = {490415.26912, 6500018.92624,0,element_size_coarse};
Line(940) = {940, 941};
Point(942) = {490275.309411, 6500158.45417,0,element_size_coarse};
Line(941) = {941, 942};
Point(943) = {490275.788143, 6500350.18878,0,element_size_coarse};
Line(942) = {942, 943};
Point(944) = {490179.311119, 6500440.17483,0,element_size_coarse};
Line(943) = {943, 944};
Point(945) = {490180.23911, 6500808.16739,0,element_size_coarse};
Line(944) = {944, 945};
Point(946) = {490085.358572, 6500904.38716,0,element_size_coarse};
Line(945) = {945, 946};
Point(947) = {490086.311472, 6501278.61522,0,element_size_coarse};
Line(946) = {946, 947};
Point(948) = {489989.81164, 6501371.61255,0,element_size_coarse};
Line(947) = {947, 948};
Point(949) = {489990.042391, 6501461.35606,0,element_size_coarse};
Line(948) = {948, 949};
Point(950) = {489940.191353, 6501504.68644,0,element_size_coarse};
Line(949) = {949, 950};
Point(951) = {489843.474922, 6501511.17289,0,element_size_coarse};
Line(950) = {950, 951};
Point(952) = {489748.603494, 6501601.16571,0,element_size_coarse};
Line(951) = {951, 952};
Point(953) = {489646.818313, 6501511.69093,0,element_size_coarse};
Line(952) = {952, 953};
Point(954) = {489551.710564, 6501511.94502,0,element_size_coarse};
Line(953) = {953, 954};
Point(955) = {489501.865335, 6501555.39237,0,element_size_coarse};
Line(954) = {954, 955};
Point(956) = {489500.799222, 6501741.00758,0,element_size_coarse};
Line(955) = {955, 956};
Point(957) = {489119.812067, 6502116.28508,0,element_size_coarse};
Line(956) = {956, 957};
Point(958) = {489120.062628, 6502205.91731,0,element_size_coarse};
Line(957) = {957, 958};
Point(959) = {489076.688512, 6502255.58745,0,element_size_coarse};
Line(958) = {958, 959};
Point(960) = {488973.534584, 6502255.87833,0,element_size_coarse};
Line(959) = {959, 960};
Point(961) = {488878.759147, 6502345.78097,0,element_size_coarse};
Line(960) = {960, 961};
Point(962) = {488828.616837, 6502299.60493,0,element_size_coarse};
Line(961) = {961, 962};
Point(963) = {488828.093008, 6502117.1115,0,element_size_coarse};
Line(962) = {962, 963};
Point(964) = {488732.780533, 6502021.51796,0,element_size_coarse};
Line(963) = {963, 964};
Point(965) = {488732.520747, 6501931.77443,0,element_size_coarse};
Line(964) = {964, 965};
Point(966) = {488587.058511, 6501793.01664,0,element_size_coarse};
Line(965) = {965, 966};
Point(967) = {487234.737297, 6501790.98117,0,element_size_coarse};
Line(966) = {966, 967};
Point(968) = {487183.032065, 6501754.07305,0,element_size_coarse};
Line(967) = {967, 968};
Point(969) = {487184.025524, 6501562.33299,0,element_size_coarse};
Line(968) = {968, 969};
Point(970) = {487088.600996, 6501466.77993,0,element_size_coarse};
Line(969) = {969, 970};
Point(971) = {487081.872379, 6501380.17554,0,element_size_coarse};
Line(970) = {970, 971};
Point(972) = {486942.761681, 6501238.34023,0,element_size_coarse};
Line(971) = {971, 972};
Point(973) = {486357.62478, 6501240.34659,0,element_size_coarse};
Line(972) = {972, 973};
Point(974) = {486262.194049, 6501151.04906,0,element_size_coarse};
Line(973) = {973, 974};
Point(975) = {486167.077395, 6501151.38583,0,element_size_coarse};
Line(974) = {974, 975};
Point(976) = {486117.265126, 6501194.87652,0,element_size_coarse};
Line(975) = {975, 976};
Point(977) = {486122.423557, 6501290.72658,0,element_size_coarse};
Line(976) = {976, 977};
Point(978) = {486021.179478, 6501377.60425,0,element_size_coarse};
Line(977) = {977, 978};
Point(979) = {486021.524102, 6501473.58285,0,element_size_coarse};
Line(978) = {978, 979};
Point(980) = {485780.577754, 6501709.50599,0,element_size_coarse};
Line(979) = {979, 980};
Point(981) = {485495.326715, 6501710.55841,0,element_size_coarse};
Line(980) = {980, 981};
Point(982) = {485393.423216, 6501615.07085,0,element_size_coarse};
Line(981) = {981, 982};
Point(983) = {485298.317869, 6501615.42886,0,element_size_coarse};
Line(982) = {982, 983};
Point(984) = {485202.871412, 6501526.04589,0,element_size_coarse};
Line(983) = {983, 984};
Point(985) = {484617.765097, 6501525.19617,0,element_size_coarse};
Line(984) = {984, 985};
Point(986) = {484523.038672, 6501621.44032,0,element_size_coarse};
Line(985) = {985, 986};
Point(987) = {484041.059374, 6501620.38006,0,element_size_coarse};
Line(986) = {986, 987};
Point(988) = {483945.584008, 6501531.02788,0,element_size_coarse};
Line(987) = {987, 988};
Point(989) = {483844.035479, 6501531.44798,0,element_size_coarse};
Line(988) = {988, 989};
Point(990) = {483653.073556, 6501340.50756,0,element_size_coarse};
Line(989) = {989, 990};
Point(991) = {483556.336583, 6501340.91494,0,element_size_coarse};
Line(990) = {990, 991};
Point(992) = {483506.188763, 6501297.81352,0,element_size_coarse};
Line(991) = {991, 992};
Point(993) = {483507.027385, 6501112.1964,0,element_size_coarse};
Line(992) = {992, 993};
Point(994) = {483456.818061, 6501069.09587,0,element_size_coarse};
Line(993) = {993, 994};
Point(995) = {483265.000701, 6501066.90925,0,element_size_coarse};
Line(994) = {994, 995};
Point(996) = {483069.152694, 6500885.26,0,element_size_coarse};
Line(995) = {995, 996};
Point(997) = {482974.015801, 6500882.55715,0,element_size_coarse};
Line(996) = {996, 997};
Point(998) = {482878.470947, 6500787.10726,0,element_size_coarse};
Line(997) = {997, 998};
Point(999) = {482776.902969, 6500787.55517,0,element_size_coarse};
Line(998) = {998, 999};
Point(1000) = {482681.392049, 6500701.35164,0,element_size_coarse};
Line(999) = {999, 1000};
Point(1001) = {482389.552209, 6500699.54282,0,element_size_coarse};
Line(1000) = {1000, 1001};
Point(1002) = {482294.01685, 6500610.34251,0,element_size_coarse};
Line(1001) = {1001, 1002};
Point(1003) = {482103.814882, 6500611.21196,0,element_size_coarse};
Line(1002) = {1002, 1003};
Point(1004) = {482008.241983, 6500515.78341,0,element_size_coarse};
Line(1003) = {1003, 1004};
Point(1005) = {481956.841996, 6500559.22348,0,element_size_coarse};
Line(1004) = {1004, 1005};
Point(1006) = {481957.73087, 6500751.06861,0,element_size_coarse};
Line(1005) = {1005, 1006};
Point(1007) = {481912.777396, 6500794.59078,0,element_size_coarse};
Line(1006) = {1006, 1007};
Point(1008) = {481811.209572, 6500795.06389,0,element_size_coarse};
Line(1007) = {1007, 1008};
Point(1009) = {481716.534197, 6500891.37628,0,element_size_coarse};
Line(1008) = {1008, 1009};
Point(1010) = {481519.830932, 6500889.18718,0,element_size_coarse};
Line(1009) = {1009, 1010};
Point(1011) = {481424.279591, 6500799.89682,0,element_size_coarse};
Line(1010) = {1010, 1011};
Point(1012) = {481379.405557, 6500846.5425,0,element_size_coarse};
Line(1011) = {1011, 1012};
Point(1013) = {481379.83471, 6500936.28549,0,element_size_coarse};
Line(1012) = {1012, 1013};
Point(1014) = {481328.447283, 6500979.7339,0,element_size_coarse};
Line(1013) = {1013, 1014};
Point(1015) = {481138.235444, 6500986.88606,0,element_size_coarse};
Line(1014) = {1014, 1015};
Point(1016) = {481036.205705, 6500891.51251,0,element_size_coarse};
Line(1015) = {1015, 1016};
Point(1017) = {480941.536489, 6500984.72618,0,element_size_coarse};
Line(1016) = {1016, 1017};
Point(1018) = {480845.974662, 6500895.56132,0,element_size_coarse};
Line(1017) = {1017, 1018};
Point(1019) = {480750.851559, 6500896.0304,0,element_size_coarse};
Line(1018) = {1018, 1019};
Point(1020) = {480654.60678, 6500986.14118,0,element_size_coarse};
Line(1019) = {1019, 1020};
Point(1021) = {479975.892708, 6500992.69015,0,element_size_coarse};
Line(1020) = {1020, 1021};
Point(1022) = {479829.899073, 6501132.62685,0,element_size_coarse};
Line(1021) = {1021, 1022};
Point(1023) = {479836.497491, 6501779.07096,0,element_size_coarse};
Line(1022) = {1022, 1023};
Point(1024) = {479741.894856, 6501875.43162,0,element_size_coarse};
Line(1023) = {1023, 1024};
Point(1025) = {479740.720513, 6501961.95411,0,element_size_coarse};
Line(1024) = {1024, 1025};
Point(1026) = {479646.125315, 6502058.42848,0,element_size_coarse};
Line(1025) = {1025, 1026};
Point(1027) = {479646.62664, 6502154.29539,0,element_size_coarse};
Line(1026) = {1026, 1027};
Point(1028) = {479550.471444, 6502250.66898,0,element_size_coarse};
Line(1027) = {1027, 1028};
Point(1029) = {479551.397558, 6502426.92607,0,element_size_coarse};
Line(1028) = {1028, 1029};
Point(1030) = {479455.19351, 6502523.30237,0,element_size_coarse};
Line(1029) = {1029, 1030};
Point(1031) = {479456.189865, 6502712.03002,0,element_size_coarse};
Line(1030) = {1030, 1031};
Point(1032) = {479359.962219, 6502802.17348,0,element_size_coarse};
Line(1031) = {1031, 1032};
Point(1033) = {479360.470726, 6502898.04047,0,element_size_coarse};
Line(1032) = {1032, 1033};
Point(1034) = {479265.949319, 6502991.40634,0,element_size_coarse};
Line(1033) = {1033, 1034};
Point(1035) = {479265.313719, 6503176.91376,0,element_size_coarse};
Line(1034) = {1034, 1035};
Point(1036) = {478922.226857, 6503500.439,0,element_size_coarse};
Line(1035) = {1035, 1036};
Point(1037) = {478827.167308, 6503500.9552,0,element_size_coarse};
Line(1036) = {1036, 1037};
Point(1038) = {478729.425595, 6503594.35191,0,element_size_coarse};
Line(1037) = {1037, 1038};
Point(1039) = {478540.934994, 6503595.38712,0,element_size_coarse};
Line(1038) = {1038, 1039};
Point(1040) = {478446.408922, 6503691.77966,0,element_size_coarse};
Line(1039) = {1039, 1040};


//**********************
// STROMA ISLAND
//**********************

Point(6553) = {491816, 6.50304e+06,0,element_size_island};
Point(6554) = {491822, 6.50349e+06,0,element_size_island};
Point(6555) = {491882, 6.50355e+06,0,element_size_island};
Point(6556) = {492054, 6.50355e+06,0,element_size_island};
Point(6557) = {492304, 6.50378e+06,0,element_size_island};
Point(6558) = {492298, 6.50387e+06,0,element_size_island};
Point(6559) = {492410, 6.50397e+06,0,element_size_island};
Point(6560) = {492410, 6.50413e+06, 0,element_size_island};
Point(6561) = {492310, 6.50425e+06,0,element_size_island};
Point(6562) = {492310, 6.5047e+06,0,element_size_island};
Point(6563) = {492369, 6.50475e+06,0,element_size_island};
Point(6564) = {492452, 6.50475e+06,0,element_size_island};
Point(6565) = {492559, 6.50466e+06,0,element_size_island};
Point(6566) = {492612, 6.5047e+06, 0,element_size_island};
Point(6567) = {492589, 6.50537e+06,0,element_size_island};
Point(6568) = {492684, 6.50545e+06, 0,element_size_island};
Point(6569) = {492684, 6.50553e+06,0,element_size_island};
Point(6570) = {492903, 6.50574e+06,0,element_size_island};
Point(6571) = {492909, 6.50582e+06,0,element_size_island};
Point(6572) = {492785, 6.50592e+06,0,element_size_island};
Point(6573) = {492791, 6.50629e+06,0,element_size_island};
Point(6574) = {492856, 6.50634e+06,0,element_size_island};
Point(6575) = {493034, 6.50633e+06, 0,element_size_island};
Point(6576) = {493147, 6.50643e+06,0,element_size_island};
Point(6577) = {493242, 6.50632e+06, 0,element_size_island};
Point(6578) = {493319, 6.50634e+06,0,element_size_island};
Point(6579) = {493474, 6.50619e+06,0,element_size_island};
Point(6580) = {493486, 6.50582e+06,0,element_size_island};
Point(6581) = {494068, 6.50526e+06,0,element_size_island};
Point(6582) = {494050, 6.50517e+06,0,element_size_island};
Point(6583) = {494151, 6.50507e+06,0,element_size_island};
Point(6584) = {494151, 6.50478e+06,0,element_size_island};
Point(6585) = {494074, 6.50471e+06,0,element_size_island};
Point(6586) = {494062, 6.50461e+06,0,element_size_island};
Point(6587) = {493955, 6.50451e+06,0,element_size_island};
Point(6588) = {493961, 6.50405e+06,0,element_size_island};
Point(6589) = {493878, 6.50395e+06,0,element_size_island};
Point(6590) = {493848, 6.50356e+06,0,element_size_island};
Point(6591) = {493604, 6.50334e+06,0,element_size_island};
Point(6592) = {493420, 6.50336e+06,0,element_size_island};
Point(6593) = {493319, 6.50327e+06,0,element_size_island};
Point(6594) = {493218, 6.50327e+06,0,element_size_island};
Point(6595) = {493117, 6.50335e+06,0,element_size_island};
Point(6596) = {492927, 6.50336e+06,0,element_size_island};
Point(6597) = {492844, 6.50344e+06,0,element_size_island};
Point(6598) = {492719, 6.50344e+06,0,element_size_island};
Point(6599) = {492345, 6.50308e+06,0,element_size_island};
Point(6600) = {492262, 6.50309e+06,0,element_size_island};
Point(6601) = {492149, 6.50299e+06,0,element_size_island};
Point(6602) = {491828, 6.50298e+06,0,element_size_island};

BSpline(5) = {6553:6602, 6553};


//**********************
// SKERRY ISLANDS
//**********************

Point(6603) = {504144, 6.50577e+06, 0,element_size_island};
Point(6604) = {504717, 6.50577e+06, 0,element_size_island};
Point(6605) = {504773, 6.50573e+06, 0,element_size_island};
Point(6606) = {504781, 6.50562e+06, 0,element_size_island};
Point(6607) = {504880, 6.50555e+06, 0,element_size_island};
Point(6608) = {504888, 6.50527e+06, 0,element_size_island};
Point(6609) = {504824, 6.50521e+06, 0,element_size_island};
Point(6610) = {504725, 6.50522e+06, 0,element_size_island};
Point(6611) = {504637, 6.50512e+06, 0,element_size_island};
Point(6612) = {504343, 6.5051e+06, 0,element_size_island};
Point(6613) = {504255, 6.50519e+06, 0,element_size_island};
Point(6614) = {504056, 6.50521e+06, 0,element_size_island};
Point(6615) = {503893, 6.50535e+06, 0,element_size_island};
Point(6616) = {503893, 6.50562e+06, 0,element_size_island};
Point(6617) = {503956, 6.50568e+06, 0,element_size_island};
Point(6618) = {504052, 6.50567e+06, 0,element_size_island};
BSpline(6) = {6603:6618, 6603};

Point(6619) = {506377, 6.50504e+06, 0,element_size_island};
Point(6620) = {506529, 6.50487e+06, 0,element_size_island};
Point(6621) = {506529, 6.50471e+06,0,element_size_island};
Point(6622) = {506477, 6.50466e+06, 0,element_size_island};
Point(6623) = {506365, 6.50465e+06, 0,element_size_island};
Point(6624) = {506210, 6.50478e+06, 0,element_size_island};
Point(6625) = {506206, 6.50487e+06, 0,element_size_island};
BSpline(7) = {6619:6625, 6619};

Point(6626) = {505784, 6.50455e+06, 0,element_size_island};
Point(6627) = {505991, 6.50457e+06, 0,element_size_island};
Point(6628) = {506035, 6.50452e+06, 0,element_size_island};
Point(6629) = {506035, 6.50443e+06, 0,element_size_island};
Point(6630) = {505892, 6.50428e+06,0,element_size_island};
Point(6631) = {505784, 6.5043e+06, 0,element_size_island};
Point(6632) = {505649, 6.50442e+06, 0,element_size_island};
BSpline(8) = {6626:6632, 6626};

Point(6633) = {505207, 6.50402e+06, 0,element_size_island};
Point(6634) = {505254, 6.50397e+06, 0,element_size_island};
Point(6635) = {505266, 6.50378e+06, 0,element_size_island};
Point(6636) = {505211, 6.50373e+06, 0,element_size_island};
Point(6637) = {505020, 6.50372e+06, 0,element_size_island};
Point(6638) = {504972, 6.50376e+06, 0,element_size_island};
Point(6639) = {504976, 6.50396e+06, 0,element_size_island};
Point(6640) = {505024, 6.50399e+06, 0,element_size_island};
BSpline(9) = {6633:6640, 6633};


//**********************
// TURBINE SITE
//**********************

Point(90) = {491744, 6.5015e+06, 0, element_size};
site_x = 1000;
site_y = 600;
Extrude{site_x, 0, 0} { Point{90}; Layers{site_x/element_size}; }
Extrude{0, site_y, 0} { Line{1040}; Layers{site_y/element_size}; }
Line Loop(90) = {1040, 1043, -1041, -1042};

//**********************
// OUTER BOUNDARY POINTS
//**********************

// North West (Southern tip of Hoy)
Point(1) = {483052, 6.51518e+06, 0, element_size_coarse};
// North East (off South Ronaldsay)
Point(2) = {510948, 6.508e+06, 0, element_size_coarse};
// South East (off Duncansby Head)
Point(3) = {506587, 6.4976e+06, 0, element_size_coarse};

Line(1) = {1040, 1};
Line(2) = {2, 3};
Line(3) = {1, 2};
Line(4) = {3, 894};

Line Loop(1) = {894:1039, 1, 3, 2, 4};
// Splines are sub-loops so need their own line loop
Line Loop(5) = {5};
Line Loop(6) = {6};
Line Loop(7) = {7};
Line Loop(8) = {8};
Line Loop(9) = {9};

Plane Surface(1) = {1, 5, 6, 7, 8, 9, 90};
Physical Surface(1) = {1, 1044};

Physical Line(1) = {1};
Physical Line(2) = {2};
Physical Line(3) = {3, 4, 894:1039, 5, 6, 7, 8, 9};
