<?xml version="1.0"?>
<VTKFile type="PUnstructuredGrid" version="0.1">
  <PUnstructuredGrid GhostLevel="0">
    <PPoints>
      <PDataArray type="Float64" NumberOfComponents="3" />
    </PPoints>
    <PCellData>
      <PDataArray type="UInt32" Name="connectivity" />
      <PDataArray type="UInt32" Name="offsets" />
      <PDataArray type="UInt8" Name="types" />
    </PCellData>
    <PPointData Scalars="turbine_friction_cache">
      <PDataArray type="Float64" Name="turbine_friction_cache" NumberOfComponents="0" />
    </PPointData>
    <Piece Source="turbines_p0_000084.vtu" />
    <Piece Source="turbines_p1_000084.vtu" />
  </PUnstructuredGrid>
</VTKFile>
